…
Visually, the largest correlation is between Citigroup and Bank of America, which highlights the importance of the sector for asset co-movements.

### Modifying data: computing returns (2)

There exists a much simpler way to proceed! The power of group\_by()...

``` r
data %>% group_by(Tick) %>% mutate(return = Close/lag(Close) - 1)
```

    ## # A tibble: 6,630 x 8
    ## # Groups:   Tick [30]
    ##    Tick  Date       Close Mkt_Cap   P2B NClose   Return   return
    ##    <fct> <date>     <dbl>   <dbl> <dbl>  <dbl>    <dbl>    <dbl>
    ##  1 AAPL  2000-01-03  4.00  17999.  4.23  1      NA       NA     
    ##  2 AAPL  2000-02-01  3.58  16163.  3.79  0.896  -0.104   -0.104 
    ##  3 AAPL  2000-03-01  4.65  21010.  4.93  1.16    0.300    0.300 
    ##  4 AAPL  2000-04-03  4.76  21493.  5.34  1.19    0.0230   0.0230
    ##  5 AAPL  2000-05-01  4.44  20042.  4.97  1.11   -0.0675  -0.0675
    ##  6 AAPL  2000-06-01  3.18  14505.  3.57  0.796  -0.283   -0.283 
    ##  7 AAPL  2000-07-03  3.81  17353.  4.30  0.953   0.196    0.196 
    ##  8 AAPL  2000-08-01  3.52  16025.  3.98  0.881  -0.0750  -0.0750
    ##  9 AAPL  2000-09-01  4.53  20615.  5.12  1.13    0.286    0.286 
    ## 10 AAPL  2000-10-02  1.73   7881.  2.02  0.433  -0.618   -0.618 
    ## # ... with 6,620 more rows
…
``` r
data %>% group_by(Tick, Year) %>% 
    summarise(Avg_Cap = mean(Mkt_Cap)) %>% 
    filter(Year == 2005) %>% 
    arrange(desc(Avg_Cap))                                  # Point 3)
```

    ## # A tibble: 30 x 3
    ## # Groups:   Tick [30]
    ##    Tick   Year Avg_Cap
    ##    <fct> <dbl>   <dbl>
    ##  1 GE     2005 371958.
    ##  2 XOM    2005 369876.
    ##  3 MSFT   2005 279008.
    ##  4 C      2005 240445.
    ##  5 WMT    2005 204644.
    ##  6 JNJ    2005 192385.
    ##  7 PFE    2005 189760.
    ##  8 BAC    2005 181023.
    ##  9 INTC   2005 152857.
    ## 10 PG     2005 137125.
    ## # ... with 20 more rows
…
