…
``` r
filter(data, Gender == "Male", Weight > 70)   # All guys heavier than 70 
```

    ##   Gender Weight Height Age
    ## 1   Male     72    156  34
    ## 2   Male     73    176  36
    ## 3   Male     99    177  42
    ## 4   Male     72    198  32

``` r
filter(diamonds, cut %in% c("Fair", "Good"))  # Diamonds with Fair or Good cut
```

    ## # A tibble: 6,516 x 10
    ##    carat cut   color clarity depth table price     x     y     z
    ##    <dbl> <ord> <ord> <ord>   <dbl> <dbl> <int> <dbl> <dbl> <dbl>
    ##  1  0.23 Good  E     VS1      56.9    65   327  4.05  4.07  2.31
    ##  2  0.31 Good  J     SI2      63.3    58   335  4.34  4.35  2.75
    ##  3  0.22 Fair  E     VS2      65.1    61   337  3.87  3.78  2.49
    ##  4  0.3  Good  J     SI1      64      55   339  4.25  4.28  2.73
    ##  5  0.3  Good  J     SI1      63.4    54   351  4.23  4.29  2.7 
    ##  6  0.3  Good  J     SI1      63.8    56   351  4.23  4.26  2.71
    ##  7  0.3  Good  I     SI2      63.3    56   351  4.26  4.3   2.71
    ##  8  0.23 Good  F     VS1      58.2    59   402  4.06  4.08  2.37
    ##  9  0.23 Good  E     VS1      64.1    59   402  3.83  3.85  2.46
    ## 10  0.31 Good  H     SI1      64      54   402  4.29  4.31  2.75
    ## # ... with 6,506 more rows

``` r
filter(diamonds, color %in% c("E", "F"))      # Diamonds with E or F color
```

    ## # A tibble: 19,339 x 10
    ##    carat cut       color clarity depth table price     x     y     z
    ##    <dbl> <ord>     <ord> <ord>   <dbl> <dbl> <int> <dbl> <dbl> <dbl>
    ##  1  0.23 Ideal     E     SI2      61.5    55   326  3.95  3.98  2.43
    ##  2  0.21 Premium   E     SI1      59.8    61   326  3.89  3.84  2.31
    ##  3  0.23 Good      E     VS1      56.9    65   327  4.05  4.07  2.31
    ##  4  0.22 Fair      E     VS2      65.1    61   337  3.87  3.78  2.49
    ##  5  0.22 Premium   F     SI1      60.4    61   342  3.88  3.84  2.33
    ##  6  0.2  Premium   E     SI2      60.2    62   345  3.79  3.75  2.27
    ##  7  0.32 Premium   E     I1       60.9    58   345  4.38  4.42  2.68
    ##  8  0.23 Very Good E     VS2      63.8    55   352  3.85  3.92  2.48
    ##  9  0.23 Very Good F     VS1      60.9    57   357  3.96  3.99  2.42
    ## 10  0.23 Very Good F     VS1      60      57   402  4     4.03  2.41
    ## # ... with 19,329 more rows
…
Adding new columns can be performed with the mutate() function. Below, we compute the price/carat ratio of diamonds. The mutate function() is THE best choice to add columns that are easily calculated.

``` r
diamonds %>% 
    select(-x, -y, -z, - depth, -table) %>% # Getting rid of less useful variables
    mutate(P_C_ratio = price/carat)         # Create a new column: the price/carat ratio
```

    ## # A tibble: 53,940 x 6
    ##    carat cut       color clarity price P_C_ratio
    ##    <dbl> <ord>     <ord> <ord>   <int>     <dbl>
    ##  1 0.23  Ideal     E     SI2       326     1417.
    ##  2 0.21  Premium   E     SI1       326     1552.
    ##  3 0.23  Good      E     VS1       327     1422.
    ##  4 0.290 Premium   I     VS2       334     1152.
    ##  5 0.31  Good      J     SI2       335     1081.
    ##  6 0.24  Very Good J     VVS2      336     1400 
    ##  7 0.24  Very Good I     VVS1      336     1400 
    ##  8 0.26  Very Good H     SI1       337     1296.
    ##  9 0.22  Fair      E     VS2       337     1532.
    ## 10 0.23  Very Good H     VS1       338     1470.
    ## # ... with 53,930 more rows
…
### Pivot tables

Pivot tables (PT) are very simply obtained via the combination of group\_by() summarise(). group\_by() determines along which variables the PT will be computed and summarise() specifies the metric/indicator of interest.

``` r
diamonds %>% 
    group_by(cut, color, clarity) %>% # Grouping by cut, then color and the clarity
    summarise(med_price = median(price), med_carat = median(price)) # For each subgroup, computing 2 indicators: median price and median carat
```

    ## # A tibble: 276 x 5
    ## # Groups:   cut, color [?]
    ##    cut   color clarity med_price med_carat
    ##    <ord> <ord> <ord>       <dbl>     <dbl>
    ##  1 Fair  D     I1          5538.     5538.
    ##  2 Fair  D     SI2         3473      3473 
    ##  3 Fair  D     SI1         3900      3900 
    ##  4 Fair  D     VS2         4107      4107 
    ##  5 Fair  D     VS1         2747      2747 
    ##  6 Fair  D     VVS2        1980      1980 
    ##  7 Fair  D     VVS1        1792      1792 
    ##  8 Fair  D     IF          1440      1440 
    ##  9 Fair  E     I1          2036      2036 
    ## 10 Fair  E     SI2         3438.     3438.
    ## # ... with 266 more rows
…
