…
If need be, the data can be ordered, according to specific variables, using the arrange() function.

``` r
arrange(diamonds, desc(carat), price) # First, descending carat, then, increasing price.
```

    ## # A tibble: 53,940 x 10
    ##    carat cut       color clarity depth table price     x     y     z
    ##    <dbl> <ord>     <ord> <ord>   <dbl> <dbl> <int> <dbl> <dbl> <dbl>
    ##  1  5.01 Fair      J     I1       65.5    59 18018 10.7  10.5   6.98
    ##  2  4.5  Fair      J     I1       65.8    58 18531 10.2  10.2   6.72
    ##  3  4.13 Fair      H     I1       64.8    61 17329 10     9.85  6.43
    ##  4  4.01 Premium   I     I1       61      61 15223 10.1  10.1   6.17
    ##  5  4.01 Premium   J     I1       62.5    62 15223 10.0   9.94  6.24
    ##  6  4    Very Good I     I1       63.3    58 15984 10.0   9.94  6.31
    ##  7  3.67 Premium   I     I1       62.4    56 16193  9.86  9.81  6.13
    ##  8  3.65 Fair      H     I1       67.1    53 11668  9.53  9.48  6.38
    ##  9  3.51 Premium   J     VS2      62.5    59 18701  9.66  9.63  6.03
    ## 10  3.5  Ideal     H     I1       62.8    57 12587  9.65  9.59  6.03
    ## # ... with 53,930 more rows
…
    ## # A tibble: 4 x 10
    ##   carat cut   color clarity depth table price     x     y     z
    ##   <dbl> <ord> <ord> <ord>   <dbl> <dbl> <int> <dbl> <dbl> <dbl>
    ## 1  3.22 Ideal I     I1       62.6    55 12545  9.49  9.42  5.92
    ## 2  3.5  Ideal H     I1       62.8    57 12587  9.65  9.59  6.03
    ## 3  3.01 Ideal J     SI2      61.7    58 16037  9.25  9.2   5.69
    ## 4  3.01 Ideal J     I1       65.4    60 16538  8.99  8.93  5.86

And subsetting can be performed over columns. Indeed, sometimes, only a few columns matter and it can be useful to only keep those (possibly in a separate variable).

``` r
select(diamonds, carat, cut, color, price)
```

    ## # A tibble: 53,940 x 4
    ##    carat cut       color price
    ##    <dbl> <ord>     <ord> <int>
    ##  1 0.23  Ideal     E       326
    ##  2 0.21  Premium   E       326
    ##  3 0.23  Good      E       327
    ##  4 0.290 Premium   I       334
    ##  5 0.31  Good      J       335
    ##  6 0.24  Very Good J       336
    ##  7 0.24  Very Good I       336
    ##  8 0.26  Very Good H       337
    ##  9 0.22  Fair      E       337
    ## 10 0.23  Very Good H       338
    ## # ... with 53,930 more rows

``` r
select(diamonds, - clarity, - x, - y, - z) # Using the minus sign performs the opposite manipulation and removes the corresponding variable
```

    ## # A tibble: 53,940 x 6
    ##    carat cut       color depth table price
    ##    <dbl> <ord>     <ord> <dbl> <dbl> <int>
    ##  1 0.23  Ideal     E      61.5    55   326
    ##  2 0.21  Premium   E      59.8    61   326
    ##  3 0.23  Good      E      56.9    65   327
    ##  4 0.290 Premium   I      62.4    58   334
    ##  5 0.31  Good      J      63.3    58   335
    ##  6 0.24  Very Good J      62.8    57   336
    ##  7 0.24  Very Good I      62.3    57   336
    ##  8 0.26  Very Good H      61.9    55   337
    ##  9 0.22  Fair      E      65.1    61   337
    ## 10 0.23  Very Good H      59.4    61   338
    ## # ... with 53,930 more rows
…
The second graph shows clusters of colours, hence of clarity. Clarity is a big deal for large diamonds. Internally flawless diamonds are very expensive. We used shape to denote cut, but this decision is ill-advised. Size would be slightly better, though not perfect.
The last graph shows that, as purity increases, diamond size shrinks (on average).

### Spreading and gathering

Rectangular data can be organized is several ways. Plot via ggplot() can only be obtained via 'columnised' data.

``` r
diamonds %>% group_by(cut, color) %>% summarise(avg_price = mean(price)) # one way to see things.. how do I get a matrix out of this? => spread()!
```

    ## # A tibble: 35 x 3
    ## # Groups:   cut [?]
    ##    cut   color avg_price
    ##    <ord> <ord>     <dbl>
    ##  1 Fair  D         4291.
    ##  2 Fair  E         3682.
    ##  3 Fair  F         3827.
    ##  4 Fair  G         4239.
    ##  5 Fair  H         5136.
    ##  6 Fair  I         4685.
    ##  7 Fair  J         4976.
    ##  8 Good  D         3405.
    ##  9 Good  E         3424.
    ## 10 Good  F         3496.
    ## # ... with 25 more rows
…
